^C:\USERS\XRIST\DOCUMENTS\TETRIS\TETRIS\SOURCE.CPP
C:\USERS\XRIST\DOCUMENTS\TETRIS\TETRIS\DEBUG\VC142.PDB
C:\USERS\XRIST\DOCUMENTS\TETRIS\TETRIS\DEBUG\VC142.IDB
C:\USERS\XRIST\DOCUMENTS\TETRIS\TETRIS\DEBUG\SOURCE.OBJ
