^C:\USERS\XRIST\DOCUMENTS\TETRIS\TETRIS\DEBUG\SOURCE.OBJ
C:\USERS\XRIST\DOCUMENTS\TETRIS\DEBUG\TETRIS.EXE
C:\USERS\XRIST\DOCUMENTS\TETRIS\DEBUG\TETRIS.ILK
C:\USERS\XRIST\DOCUMENTS\TETRIS\DEBUG\TETRIS.PDB
